{
  "name": "cap",
  "$schema": "../../node_modules/nx/schemas/project-schema.json",
  "sourceRoot": "libs/cap/src",
  "projectType": "library",
  "targets": {
    "build": {
      "executor": "@nx/rollup:rollup",
      "outputs": ["{options.outputPath}"],
      "options": {
        "outputPath": "dist/libs/cap",
        "tsConfig": "libs/cap/tsconfig.lib.json",
        "project": "libs/cap/package.json",
        "entryFile": "libs/cap/src/index.ts",
        "external": "all",
        "rollupConfig": "@nx/react/plugins/bundle-rollup",
        "assets": [
          {
            "glob": "README.md",
            "input": "./libs/cap",
            "output": "."
          }
        ]
      }
    },
    "lint": {
      "executor": "@nx/linter:eslint",
      "options": {
        "lintFilePatterns": [
          "libs/cap/**/*.{ts,tsx,js,jsx}",
          "libs/cap/package.json"
        ]
      }
    },
    "test": {
      "executor": "@nx/jest:jest",
      "outputs": ["{workspaceRoot}/coverage/libs/cap"],
      "options": {
        "jestConfig": "libs/cap/jest.config.js",
        "codeCoverage": true
      }
    },
    "typecheck": {
      "executor": "nx:run-commands",
      "options": {
        "command": "tsc -p libs/cap/tsconfig.lib.json"
      }
    },
    "docs": {
      "executor": "nx:run-commands",
      "options": {
        "command": "npx typedoc --out docs/cap libs/cap/src/index.ts --tsconfig libs/cap/tsconfig.lib.json"
      }
    },
    "storybook": {
      "executor": "@nx/storybook:storybook",
      "options": {
        "port": 5100,
        "configDir": "libs/cap/.storybook",
        "outputDir": "dist/storybook/cap"
      },
      "configurations": {
        "ci": {
          "quiet": true
        }
      }
    },
    "build-storybook": {
      "executor": "@nx/storybook:build",
      "outputs": ["{options.outputPath}"],
      "options": {
        "configDir": "libs/cap/.storybook",
        "outputDir": "dist/storybook/cap"
      },
      "configurations": {
        "ci": {
          "quiet": true
        }
      }
    }
  },
  "tags": ["scope:cap"]
}
