[
  {
    "title": "Radar",
    "id": "radar",
    "date": "2022-06-01T12:34:27.787184",
    "scope": "system"
  },

  {
    "title": "Temperature",
    "id": "temp",
    "date": "2022-06-01T12:34:27.787184",
    "scope": "system"
  },
  {
    "title": "Radar",
    "id": "screenRadar",
    "date": "2022-06-01T12:34:27.787184",
    "scope": "user"
  },
  {
    "id": "screenConfigC",
    "title": "Satellite",
    "date": "2022-06-01T12:34:27.787184",
    "scope": "system"
  },
  {
    "title": "map_OBSTA",
    "id": "map_OBSTA",
    "date": "2022-06-01T12:34:27.787184",
    "scope": "system"
  },
  {
    "title": "map_OBSPP",
    "id": "map_OBSPP",
    "date": "2022-06-01T12:34:27.787184",
    "scope": "system"
  },
  {
    "title": "map_OBSWind",
    "id": "map_OBSWind",
    "date": "2022-06-01T12:34:27.787184",
    "scope": "system"
  },
  {
    "title": "map_OBSRH",
    "id": "map_OBSRH",
    "date": "2022-06-01T12:34:27.787184",
    "scope": "system"
  },
  {
    "title": "map_OBSQG",
    "id": "map_OBSQG",
    "date": "2022-06-01T12:34:27.787184",
    "scope": "system"
  },
  {
    "title": "harmPrecip",
    "id": "harmPrecip",
    "date": "2022-06-01T12:34:27.787184",
    "scope": "system"
  },
  {
    "title": "harmTemp",
    "id": "harmTemp",
    "date": "2022-06-01T12:34:27.787184",
    "scope": "system"
  },
  {
    "title": "screenHarm",
    "id": "screenHarm",
    "date": "2022-06-01T12:34:27.787184",
    "scope": "system"
  },

  {
    "title": "Harmonie",
    "id": "viewHarmonie",
    "date": "2022-06-01T12:34:27.787184",
    "scope": "system"
  },

  {
    "title": "harmRefTime",
    "id": "harmRefTime",
    "date": "2022-06-01T12:34:27.787184",
    "scope": "system"
  },
  {
    "title": "harmRefTimeAll",
    "id": "harmRefTimeAll",
    "date": "2022-06-01T12:34:27.787184",
    "scope": "system"
  },
  {
    "title": "screenHarmAll",
    "id": "screenHarmAll",
    "date": "2022-06-01T12:34:27.787184",
    "scope": "system"
  },
  {
    "title": "harmPressure",
    "id": "harmPressure",
    "date": "2022-06-01T12:34:27.787184",
    "scope": "system"
  },
  {
    "title": "Empty map",
    "id": "emptyMap",
    "date": "2022-06-01T12:34:27.787184",
    "scope": "system"
  },
  {
    "title": "Timeseries map",
    "id": "TimeseriesMap",
    "date": "2022-06-01T12:34:27.787184",
    "scope": "system"
  },
  {
    "title": "sat",
    "id": "sat",
    "date": "2022-06-01T12:34:27.787184",
    "scope": "system"
  },
  {
    "title": "rad",
    "id": "rad",
    "date": "2022-06-01T12:34:27.787184",
    "scope": "system"
  },
  {
    "title": "screenRadAndObs",
    "id": "screenRadAndObs",
    "date": "2022-06-01T12:34:27.787184",
    "scope": "system"
  },
  {
    "title": "demosyncgroupbbox_radar",
    "id": "demosyncgroupbbox_radar",
    "date": "2022-06-01T12:34:27.787184",
    "scope": "system"
  },
  {
    "title": "demosyncgroupbbox_temp",
    "id": "demosyncgroupbbox_temp",
    "date": "2022-06-01T12:34:27.787184",
    "scope": "system"
  },
  {
    "title": "demosyncgrouptime_radar",
    "id": "demosyncgrouptime_radar",
    "date": "2022-06-01T12:34:27.787184",
    "scope": "system"
  },
  {
    "title": "demosyncgrouptime_temp",
    "id": "demosyncgrouptime_temp",
    "date": "2022-06-01T12:34:27.787184",
    "scope": "system"
  },
  {
    "title": "Cap Warnings",
    "id": "capView",
    "date": "2022-06-01T12:34:27.787184",
    "scope": "system"
  },
  {
    "title": "Warning List",
    "id": "warningList",
    "date": "2022-06-01T12:34:27.787184",
    "scope": "system"
  }
]
