[
  {
    "id": "radar",
    "title": "Radar",
    "componentType": "Map",
    "initialProps": {
      "mapPreset": {
        "layers": [
          {
            "service": "https://geoservices.knmi.nl/wms?dataset=RADAR",
            "name": "RAD_NL25_PCP_CM",
            "format": "image/png",
            "enabled": true,
            "style": "radar/nearest",
            "id": "layerid_8",
            "layerType": "mapLayer"
          },
          {
            "service": "https://openwms.fmi.fi/geoserver/wms?",
            "name": "Radar:suomi_dbz_eureffin",
            "format": "image/png",
            "style": "Radar dbz Summer",
            "enabled": true,
            "layerType": "mapLayer"
          },
          {
            "service": "https://geoservices.knmi.nl/wms?dataset=RADAR",
            "name": "RAD_NL25_PCP_CM",
            "format": "image/png",
            "style": "precip-blue-transparent/nearest",
            "enabled": true,
            "layerType": "mapLayer"
          }
        ],
        "proj": {
          "bbox": {
            "left": 58703.6377,
            "bottom": 6408480.4514,
            "right": 3967387.5161,
            "top": 11520588.9031
          },
          "srs": "EPSG:3857"
        },
        "activeLayerId": "radar_precipitation_intensity_nordic_id",
        "toggleTimestepAuto": false,
        "animationPayload": {
          "duration": 240,
          "interval": 5,
          "speed": 2,
          "endTime": "NOW+PT2H00M",
          "shouldEndtimeOverride": true
        },
        "shouldAutoUpdate": true,
        "shouldAnimate": true
      }
    }
  },
  {
    "title": "Temperature",
    "id": "temp",
    "componentType": "Map",
    "initialProps": {
      "mapPreset": {
        "layers": [
          {
            "service": "https://geoservices.knmi.nl/adagucserver?dataset=OBS",
            "name": "10M/ta",
            "id": "layerid_10",
            "layerType": "mapLayer"
          }
        ],
        "proj": {
          "bbox": {
            "left": -450651.2255879827,
            "bottom": 6490531.093143953,
            "right": 1428345.8183648037,
            "top": 7438773.776232235
          },
          "srs": "EPSG:3857"
        }
      },
      "syncGroupsIds": ["Area_RadarTemp", "Time_RadarTemp"]
    }
  },
  {
    "title": "TimeseriesMap",
    "id": "TimeseriesMap",
    "x": 0,
    "y": 0,
    "w": 6,
    "h": 18,
    "componentType": "Map",
    "initialProps": {
      "mapPreset": {
        "layers": [],
        "displayMapPin": true,
        "proj": {
          "bbox": {
            "left": -450651.2255879827,
            "bottom": 6490531.093143953,
            "right": 1428345.8183648037,
            "top": 7438773.776232235
          },
          "srs": "EPSG:3857"
        }
      }
    }
  },
  {
    "title": "KNMI Harmonie forecast",
    "id": "Timeseries",
    "x": 6,
    "y": 0,
    "w": 6,
    "h": 18,
    "componentType": "TimeSeries",
    "initialProps": {
      "plotPreset": {
        "mapId": "TimeseriesMap",
        "plots": [
          {
            "title": "Plot 1",
            "plotId": "Plot_1"
          },
          {
            "title": "Plot 2",
            "plotId": "Plot_2"
          },
          {
            "title": "Plot 3",
            "plotId": "Plot_3"
          }
        ],
        "parameters": [
          {
            "plotId": "Plot_1",
            "unit": "hPa",
            "propertyName": "air_pressure_at_sea_level",
            "plotType": "line",
            "serviceId": "knmi"
          },
          {
            "plotId": "Plot_1",
            "unit": "C",
            "propertyName": "air_temperature__at_2m",
            "plotType": "line",
            "serviceId": "knmi"
          },
          {
            "plotId": "Plot_2",
            "unit": "mm/hr",
            "propertyName": "precipitation_flux",
            "plotType": "bar",
            "serviceId": "knmi"
          },
          {
            "plotId": "Plot_3",
            "unit": "%",
            "propertyName": "relative_humidity__at_2m",
            "plotType": "line",
            "serviceId": "knmi"
          }
        ],
        "services": [
          {
            "id": "knmi",
            "serviceUrl": "https://geoservices.knmi.nl/ogcapi/collections/HARM_N25/items?f=json&limit=200"
          }
        ]
      }
    }
  },
  {
    "title": "Harmonie precipitation, pressure and wind",
    "id": "harmRefTime",
    "componentType": "ModelRunInterval",
    "initialProps": {
      "layers": [
        {
          "service": "https://geoservices.knmi.nl/wms?DATASET=HARM_N25",
          "name": "air_pressure_at_sea_level",
          "id": "layerid_20",
          "layerType": "mapLayer",
          "enabled": true
        },
        {
          "service": "https://geoservices.knmi.nl/wms?DATASET=HARM_N25",
          "name": "wind__at_10m",
          "enabled": true,
          "id": "layerid_21",
          "layerType": "mapLayer"
        },
        {
          "service": "https://geoservices.knmi.nl/wms?DATASET=HARM_N25",
          "name": "precipitation_flux",
          "id": "layerid_19",
          "layerType": "mapLayer",
          "enabled": true
        }
      ],
      "syncGroupsIds": ["areaLayerGroupA"]
    }
  },
  {
    "title": "Harmonie precipitation, pressure and wind",
    "id": "harmRefTimeAll",
    "componentType": "ModelRunInterval",
    "initialProps": {
      "layers": [
        {
          "service": "https://geoservices.knmi.nl/wms?DATASET=HARM_N25",
          "name": "air_pressure_at_sea_level",
          "id": "layerid_20",
          "layerType": "mapLayer",
          "enabled": true
        },
        {
          "service": "https://geoservices.knmi.nl/wms?DATASET=HARM_N25",
          "name": "wind__at_10m",
          "enabled": true,
          "id": "layerid_21",
          "layerType": "mapLayer"
        },
        {
          "service": "https://geoservices.knmi.nl/wms?DATASET=HARM_N25",
          "name": "precipitation_flux",
          "id": "layerid_19",
          "layerType": "mapLayer",
          "enabled": true
        }
      ],
      "syncGroupsIds": ["areaLayerGroupA", "layerGroupA"]
    }
  },
  {
    "title": "Harmonie Temperature and Precipitation",
    "id": "screenHarm",
    "componentType": "HarmonieTempAndPrecipPreset",
    "initialProps": {
      "layers": {
        "topRow": {
          "service": "https://geoservices.knmi.nl/wms?DATASET=HARM_N25",
          "name": "air_temperature__at_2m",
          "id": "layerid_18",
          "layerType": "mapLayer",
          "enabled": true
        },
        "bottomRow": {
          "service": "https://geoservices.knmi.nl/wms?DATASET=HARM_N25",
          "name": "precipitation_flux",
          "id": "layerid_19",
          "layerType": "mapLayer",
          "enabled": true
        },
        "topRowSyncGroups": ["timeLayerGroupA", "areaLayerGroupA"],
        "bottomRowSyncGroups": ["timeLayerGroupA", "areaLayerGroupA"]
      }
    }
  },
  {
    "title": "Harmonie Temperature and Precipitation",
    "id": "screenHarmAll",
    "componentType": "HarmonieTempAndPrecipPreset",
    "initialProps": {
      "layers": {
        "topRow": {
          "service": "https://geoservices.knmi.nl/wms?DATASET=HARM_N25",
          "name": "air_temperature__at_2m",
          "id": "layerid_18",
          "layerType": "mapLayer",
          "enabled": true
        },
        "bottomRow": {
          "service": "https://geoservices.knmi.nl/wms?DATASET=HARM_N25",
          "name": "precipitation_flux",
          "id": "layerid_19",
          "layerType": "mapLayer",
          "enabled": true
        },
        "topRowSyncGroups": [
          "timeLayerGroupA",
          "areaLayerGroupA",
          "layerGroupA"
        ],
        "bottomRowSyncGroups": [
          "timeLayerGroupA",
          "areaLayerGroupA",
          "layerGroupB"
        ]
      }
    }
  },
  {
    "componentType": "Map",
    "title": "Radar",
    "id": "screenRadar",
    "scope": "user",
    "initialProps": {
      "mapPreset": {
        "layers": [
          {
            "service": "https://geoservices.knmi.nl/wms?dataset=RADAR",
            "name": "RAD_NL25_PCP_CM",
            "format": "image/png",
            "enabled": true,
            "style": "radar/nearest",
            "id": "layerid_8",
            "layerType": "mapLayer"
          }
        ],
        "proj": {
          "bbox": {
            "left": -450651.2255879827,
            "bottom": 6490531.093143953,
            "right": 1428345.8183648037,
            "top": 7438773.776232235
          },
          "srs": "EPSG:3857"
        }
      }
    }
  },
  {
    "componentType": "Map",
    "id": "screenConfigC",
    "title": "Satellite",
    "initialProps": {
      "mapPreset": {
        "layers": [
          {
            "service": "https://eumetview.eumetsat.int/geoserv/wms?",
            "name": "meteosat:msg_naturalenhncd",
            "enabled": true,
            "id": "layerid_36",
            "layerType": "mapLayer"
          }
        ],
        "proj": {
          "bbox": {
            "left": -7529663.50832266,
            "bottom": 308359.5390525013,
            "right": 7493930.85787452,
            "top": 11742807.68245839
          },
          "srs": "EPSG:3857"
        }
      }
    }
  },
  {
    "componentType": "Map",
    "title": "Satellite",
    "id": "sat",
    "initialProps": {
      "mapPreset": {
        "layers": [
          {
            "service": "https://eumetview.eumetsat.int/geoserv/wms?",
            "name": "meteosat:msg_naturalenhncd",
            "enabled": true,
            "id": "layerid_36",
            "layerType": "mapLayer"
          }
        ],
        "proj": {
          "bbox": {
            "left": -7529663.50832266,
            "bottom": 308359.5390525013,
            "right": 7493930.85787452,
            "top": 11742807.68245839
          },
          "srs": "EPSG:3857"
        },
        "shouldAnimate": true,
        "animationPayload": { "duration": 180, "interval": 15 }
      }
    }
  },
  {
    "componentType": "Map",
    "title": "Radar",
    "id": "rad",
    "initialProps": {
      "mapPreset": {
        "layers": [
          {
            "service": "https://geoservices.knmi.nl/wms?dataset=RADAR",
            "name": "RAD_NL25_PCP_CM",
            "format": "image/png",
            "enabled": true,
            "style": "radar/nearest",
            "id": "layerid_8",
            "layerType": "mapLayer"
          }
        ],
        "proj": {
          "bbox": {
            "left": -450651.2255879827,
            "bottom": 6490531.093143953,
            "right": 1428345.8183648037,
            "top": 7438773.776232235
          },
          "srs": "EPSG:3857"
        },
        "shouldAnimate": true,
        "animationPayload": { "duration": 120, "interval": 5, "speed": 8 }
      }
    }
  },
  {
    "componentType": "Map",
    "id": "map_OBSTA",
    "initialProps": {
      "mapPreset": {
        "layers": [
          {
            "service": "https://geoservices.knmi.nl/adagucserver?dataset=OBS",
            "name": "10M/ta",
            "id": "layerid_10",
            "layerType": "mapLayer"
          }
        ],
        "proj": {
          "bbox": {
            "left": -450651.2255879827,
            "bottom": 6490531.093143953,
            "right": 1428345.8183648037,
            "top": 7438773.776232235
          },
          "srs": "EPSG:3857"
        }
      },
      "syncGroupsIds": ["Area_A", "Time_A"]
    }
  },
  {
    "componentType": "Map",
    "id": "map_OBSPP",
    "initialProps": {
      "mapPreset": {
        "layers": [
          {
            "service": "https://geoservices.knmi.nl/adagucserver?dataset=OBS",
            "name": "10M/pp",
            "id": "layerid_12",
            "layerType": "mapLayer"
          }
        ],
        "proj": {
          "bbox": {
            "left": -450651.2255879827,
            "bottom": 6490531.093143953,
            "right": 1428345.8183648037,
            "top": 7438773.776232235
          },
          "srs": "EPSG:3857"
        }
      },
      "syncGroupsIds": ["Area_A", "Time_A"]
    }
  },
  {
    "componentType": "Map",
    "id": "map_OBSWind",
    "initialProps": {
      "mapPreset": {
        "layers": [
          {
            "service": "https://geoservices.knmi.nl/adagucserver?dataset=OBS",
            "name": "10M/wind",
            "id": "layerid_11",
            "layerType": "mapLayer"
          }
        ],
        "proj": {
          "bbox": {
            "left": -450651.2255879827,
            "bottom": 6490531.093143953,
            "right": 1428345.8183648037,
            "top": 7438773.776232235
          },
          "srs": "EPSG:3857"
        }
      },
      "syncGroupsIds": ["Area_A", "Time_A"]
    }
  },
  {
    "componentType": "Map",
    "id": "map_OBSRH",
    "initialProps": {
      "mapPreset": {
        "layers": [
          {
            "service": "https://geoservices.knmi.nl/adagucserver?dataset=OBS",
            "name": "10M/rh",
            "id": "layerid_13",
            "layerType": "mapLayer"
          }
        ],
        "proj": {
          "bbox": {
            "left": -450651.2255879827,
            "bottom": 6490531.093143953,
            "right": 1428345.8183648037,
            "top": 7438773.776232235
          },
          "srs": "EPSG:3857"
        }
      },
      "syncGroupsIds": ["Area_A", "Time_A"]
    }
  },
  {
    "componentType": "Map",
    "id": "map_OBSQG",
    "initialProps": {
      "mapPreset": {
        "layers": [
          {
            "service": "https://geoservices.knmi.nl/adagucserver?dataset=OBS",
            "name": "10M/qg",
            "id": "layerid_14",
            "layerType": "mapLayer"
          }
        ],
        "proj": {
          "bbox": {
            "left": -450651.2255879827,
            "bottom": 6490531.093143953,
            "right": 1428345.8183648037,
            "top": 7438773.776232235
          },
          "srs": "EPSG:3857"
        }
      },
      "syncGroupsIds": ["Area_A", "Time_A"]
    }
  },
  {
    "componentType": "MultiMap",
    "id": "screenRadAndObs",
    "initialProps": {
      "shouldShowZoomControls": false,
      "mapPreset": [
        {
          "layers": [
            {
              "service": "https://geoservices.knmi.nl/wms?dataset=RADAR",
              "name": "RAD_NL25_PCP_CM",
              "format": "image/png",
              "enabled": true,
              "style": "radar/nearest",
              "id": "layerid_8",
              "layerType": "mapLayer"
            },
            {
              "id": "base-layer-2",
              "name": "OpenStreetMap_NL",
              "type": "twms",
              "layerType": "baseLayer",
              "enabled": true
            }
          ],
          "proj": {
            "bbox": {
              "left": -450651.2255879827,
              "bottom": 6490531.093143953,
              "right": 1428345.8183648037,
              "top": 7438773.776232235
            },
            "srs": "EPSG:3857"
          }
        },
        {
          "layers": [
            {
              "service": "https://geoservices.knmi.nl/adagucserver?dataset=OBS",
              "name": "10M/ta",
              "id": "layerid_10",
              "layerType": "mapLayer"
            }
          ]
        },
        {
          "layers": [
            {
              "service": "https://geoservices.knmi.nl/wms?DATASET=HARM_N25",
              "name": "precipitation_flux",
              "id": "layerid_19",
              "layerType": "mapLayer",
              "enabled": true
            }
          ],
          "proj": {
            "bbox": {
              "left": -450651.2255879827,
              "bottom": 6490531.093143953,
              "right": 1428345.8183648037,
              "top": 7438773.776232235
            },
            "srs": "EPSG:3857"
          }
        },
        {
          "layers": [
            {
              "service": "https://eumetview.eumetsat.int/geoserv/wms?",
              "name": "meteosat:msg_naturalenhncd",
              "enabled": true,
              "id": "layerid_36",
              "layerType": "mapLayer"
            }
          ],
          "proj": {
            "bbox": {
              "left": -7529663.50832266,
              "bottom": 308359.5390525013,
              "right": 7493930.85787452,
              "top": 11742807.68245839
            },
            "srs": "EPSG:3857"
          }
        }
      ],
      "syncGroupsIds": ["Area_screenRadAndObs", "Time_screenRadAndObs"]
    }
  },
  {
    "componentType": "Map",
    "id": "harmPrecip",
    "initialProps": {
      "mapPreset": {
        "layers": [
          {
            "service": "https://geoservices.knmi.nl/wms?DATASET=HARM_N25",
            "name": "precipitation_flux",
            "id": "layerid_19",
            "layerType": "mapLayer",
            "enabled": true
          }
        ],
        "proj": {
          "bbox": {
            "left": -450651.2255879827,
            "bottom": 6490531.093143953,
            "right": 1428345.8183648037,
            "top": 7438773.776232235
          },
          "srs": "EPSG:3857"
        },
        "showTimeSlider": false
      },
      "syncGroupsIds": ["Area_B", "Time_B"]
    }
  },
  {
    "componentType": "Map",
    "id": "harmTemp",
    "initialProps": {
      "mapPreset": {
        "layers": [
          {
            "service": "https://geoservices.knmi.nl/wms?DATASET=HARM_N25",
            "name": "air_temperature__at_2m",
            "id": "layerid_18",
            "layerType": "mapLayer",
            "enabled": true
          }
        ],
        "proj": {
          "bbox": {
            "left": -450651.2255879827,
            "bottom": 6490531.093143953,
            "right": 1428345.8183648037,
            "top": 7438773.776232235
          },
          "srs": "EPSG:3857"
        },
        "showTimeSlider": false
      },
      "syncGroupsIds": ["Area_B", "Time_B"]
    }
  },

  {
    "componentType": "Map",
    "id": "harmPressure",
    "initialProps": {
      "mapPreset": {
        "layers": [
          {
            "service": "https://geoservices.knmi.nl/wms?DATASET=HARM_N25",
            "name": "air_pressure_at_sea_level",
            "id": "layerid_20",
            "layerType": "mapLayer",
            "enabled": true
          }
        ],
        "proj": {
          "bbox": {
            "left": -450651.2255879827,
            "bottom": 6490531.093143953,
            "right": 1428345.8183648037,
            "top": 7438773.776232235
          },
          "srs": "EPSG:3857"
        },
        "showTimeSlider": false
      },
      "syncGroupsIds": ["Area_B", "Time_B"]
    }
  },
  {
    "componentType": "TimeSlider",
    "id": "slider",
    "initialProps": {
      "sliderPreset": { "mapId": "harmPrecip" },
      "syncGroupsIds": ["Area_B", "Time_B"]
    }
  },
  {
    "title": "Radar",
    "id": "demosyncgroupbbox_radar",
    "componentType": "Map",
    "initialProps": {
      "mapPreset": {
        "layers": [
          {
            "service": "https://geoservices.knmi.nl/wms?dataset=RADAR",
            "name": "RAD_NL25_PCP_CM",
            "format": "image/png",
            "enabled": true,
            "style": "radar/nearest",
            "id": "layerid_8",
            "layerType": "mapLayer"
          },
          {
            "service": "https://maps.heigit.org/osm-wms/service",
            "id": "layerid_5",
            "name": "osm_auto:all",
            "layerType": "baseLayer"
          }
        ],
        "proj": {
          "bbox": {
            "left": -450651.2255879827,
            "bottom": 6490531.093143953,
            "right": 1428345.8183648037,
            "top": 7438773.776232235
          },
          "srs": "EPSG:3857"
        }
      },
      "syncGroupsIds": ["Area_radar"]
    }
  },
  {
    "title": "Temperature",
    "id": "demosyncgroupbbox_temp",
    "componentType": "Map",
    "initialProps": {
      "mapPreset": {
        "layers": [
          {
            "service": "https://geoservices.knmi.nl/adagucserver?dataset=OBS",
            "name": "10M/ta",
            "id": "layerid_10",
            "layerType": "mapLayer"
          }
        ],
        "proj": {
          "bbox": {
            "left": -450651.2255879827,
            "bottom": 6490531.093143953,
            "right": 1428345.8183648037,
            "top": 7438773.776232235
          },
          "srs": "EPSG:3857"
        }
      },
      "syncGroupsIds": ["Area_radar"]
    }
  },
  {
    "title": "Radar",
    "id": "demosyncgrouptime_radar",
    "componentType": "Map",
    "initialProps": {
      "mapPreset": {
        "layers": [
          {
            "service": "https://geoservices.knmi.nl/wms?dataset=RADAR",
            "name": "RAD_NL25_PCP_CM",
            "format": "image/png",
            "enabled": true,
            "style": "radar/nearest",
            "id": "layerid_8",
            "layerType": "mapLayer"
          },
          {
            "service": "https://maps.heigit.org/osm-wms/service",
            "id": "layerid_5",
            "name": "osm_auto:all",
            "layerType": "baseLayer"
          }
        ],
        "proj": {
          "bbox": {
            "left": -450651.2255879827,
            "bottom": 6490531.093143953,
            "right": 1428345.8183648037,
            "top": 7438773.776232235
          },
          "srs": "EPSG:3857"
        }
      },
      "syncGroupsIds": ["Time_radar"]
    }
  },
  {
    "title": "Temperature",
    "id": "demosyncgrouptime_temp",
    "componentType": "Map",
    "initialProps": {
      "mapPreset": {
        "layers": [
          {
            "service": "https://geoservices.knmi.nl/adagucserver?dataset=OBS",
            "name": "10M/ta",
            "id": "layerid_10",
            "layerType": "mapLayer"
          }
        ],
        "proj": {
          "bbox": {
            "left": -450651.2255879827,
            "bottom": 6490531.093143953,
            "right": 1428345.8183648037,
            "top": 7438773.776232235
          },
          "srs": "EPSG:3857"
        }
      },
      "syncGroupsIds": ["Time_radar"]
    }
  },
  {
    "title": "Empty map",
    "id": "emptyMap",
    "componentType": "Map",
    "initialProps": { "mapPreset": { "layers": [] }, "syncGroupsIds": [] }
  },
  {
    "title": "TAF",
    "id": "taf",
    "componentType": "TafModule",
    "initialProps": {}
  },
  {
    "title": "Actions example",
    "id": "actionsExample",
    "componentType": "ActionsExample",
    "initialProps": {}
  },
  {
    "title": "HARM",
    "id": "viewHarmonie",
    "componentType": "Map",
    "initialProps": {
      "mapPreset": {
        "layers": [
          {
            "service": "https://geoservices.knmi.nl/adagucserver?dataset=HARM_N25",
            "name": "wind__at_pl",
            "id": "wind__at_pl",
            "format": "image/png",
            "enabled": true,
            "style": "",
            "layerType": "mapLayer",
            "dimensions": [
              {
                "name": "elevation",
                "currentValue": "850"
              }
            ]
          },
          {
            "service": "https://geoservices.knmi.nl/adagucserver?dataset=HARM_N25",
            "name": "air_temperature__at_pl",
            "id": "air_temperature__at_pl",
            "format": "image/png",
            "enabled": true,
            "style": "",
            "layerType": "mapLayer",
            "dimensions": [
              {
                "name": "elevation",
                "currentValue": "850"
              }
            ]
          },
          {
            "service": "https://geoservices.knmi.nl/adagucserver?dataset=HARM_N25",
            "name": "geopotential__at_pl",
            "id": "geopotential__at_pl",
            "format": "image/png",
            "enabled": true,
            "style": "",
            "layerType": "mapLayer",
            "dimensions": [
              {
                "name": "elevation",
                "currentValue": "850"
              }
            ]
          },
          {
            "service": "https://geoservices.knmi.nl/adagucserver?dataset=HARM_N25",
            "name": "relative_humidity__at_pl",
            "id": "relative_humidity__at_pl",
            "format": "image/png",
            "enabled": true,
            "style": "",
            "layerType": "mapLayer",
            "dimensions": [
              {
                "name": "elevation",
                "currentValue": "850"
              }
            ]
          },
          {
            "service": "https://geoservices.knmi.nl/adagucserver?dataset=HARM_N25",
            "name": "air_temperature__at_2m",
            "id": "air_temperature__at_2m",
            "format": "image/png",
            "enabled": true,
            "style": "",
            "layerType": "mapLayer"
          },
          {
            "service": "https://geoservices.knmi.nl/adagucserver?dataset=HARM_N25",
            "name": "wind__at_10m",
            "id": "wind__at_10m",
            "format": "image/png",
            "enabled": true,
            "style": "",
            "layerType": "mapLayer"
          },
          {
            "service": "https://geoservices.knmi.nl/adagucserver?dataset=HARM_N25",
            "name": "wind_speed_of_gust__at_10m",
            "id": "wind_speed_of_gust__at_10m",
            "format": "image/png",
            "enabled": true,
            "style": "",
            "layerType": "mapLayer"
          },
          {
            "service": "https://geoservices.knmi.nl/adagucserver?dataset=HARM_N25",
            "name": "precipitation_flux",
            "id": "precipitation_flux",
            "format": "image/png",
            "enabled": true,
            "style": "",
            "layerType": "mapLayer"
          }
        ],
        "proj": {
          "bbox": {
            "left": -450651.2255879827,
            "bottom": 6490531.093143953,
            "right": 1428345.8183648037,
            "top": 7438773.776232235
          },
          "srs": "EPSG:3857"
        }
      }
    }
  },
  {
    "id": "capMapView",
    "title": "Cap Warning Map",
    "componentType": "CapWarningMap",
    "initialProps": {
      "mapPreset": {
        "layers": [
          {
            "service": "https://geoservices.knmi.nl/wms?dataset=RADAR",
            "name": "RAD_NL25_PCP_CM",
            "format": "image/png",
            "style": "radar/nearest",
            "enabled": true,
            "layerType": "mapLayer"
          }
        ],
        "proj": {
          "bbox": {
            "left": 58703.6377,
            "bottom": 6408480.4514,
            "right": 3967387.5161,
            "top": 11520588.9031
          },
          "srs": "EPSG:3857"
        },
        "activeLayerId": "radar_precipitation_intensity_nordic_id",
        "toggleTimestepAuto": false,
        "animationPayload": {
          "duration": 240,
          "interval": 5,
          "speed": 2,
          "endTime": "NOW+PT2H00M"
        },
        "dockedLayerManagerSize": "sizeMedium",
        "shouldAutoUpdate": true
      }
    }
  },

  {
    "id": "capListView",
    "title": "Cap Warning List",
    "componentType": "CapWarningList",
    "initialProps": {}
  },
  {
    "id": "warningList",
    "title": "Warning List",
    "componentType": "WarningList",
    "initialProps": {}
  }
]
