{
  "name": "layer-select",
  "$schema": "../../node_modules/nx/schemas/project-schema.json",
  "sourceRoot": "libs/layer-select/src",
  "projectType": "library",
  "tags": ["scope:layer-select"],
  "targets": {
    "lint": {
      "executor": "@nx/linter:eslint",
      "outputs": ["{options.outputFile}"],
      "options": {
        "lintFilePatterns": [
          "libs/layer-select/**/*.{ts,tsx,js,jsx}",
          "libs/layer-select/package.json"
        ]
      }
    },
    "build": {
      "executor": "@nx/rollup:rollup",
      "outputs": ["{options.outputPath}"],
      "options": {
        "outputPath": "dist/libs/layer-select",
        "tsConfig": "libs/layer-select/tsconfig.lib.json",
        "project": "libs/layer-select/package.json",
        "entryFile": "libs/layer-select/src/index.ts",
        "external": "all",
        "rollupConfig": "@nx/react/plugins/bundle-rollup",
        "compiler": "babel",
        "assets": [
          {
            "glob": "libs/layer-select/README.md",
            "input": ".",
            "output": "."
          }
        ]
      }
    },
    "test": {
      "executor": "@nx/jest:jest",
      "outputs": ["{workspaceRoot}/coverage/{projectRoot}"],
      "options": {
        "jestConfig": "libs/layer-select/jest.config.ts",
        "codeCoverage": true
      }
    },
    "typecheck": {
      "executor": "nx:run-commands",
      "options": {
        "command": "tsc -p libs/layer-select/tsconfig.lib.json"
      }
    },
    "storybook": {
      "executor": "@nx/storybook:storybook",
      "options": {
        "port": 4401,
        "configDir": "libs/layer-select/.storybook"
      },
      "configurations": {
        "ci": {
          "quiet": true
        }
      }
    },
    "build-storybook": {
      "executor": "@nx/storybook:build",
      "outputs": ["{options.outputDir}"],
      "options": {
        "outputDir": "dist/storybook/layer-select",
        "configDir": "libs/layer-select/.storybook"
      },
      "configurations": {
        "ci": {
          "quiet": true
        }
      }
    },
    "docs": {
      "executor": "nx:run-commands",
      "options": {
        "command": "npx typedoc --out docs/layer-select libs/layer-select/src/index.ts --tsconfig libs/layer-select/tsconfig.lib.json"
      }
    }
  }
}
