{
  "GW_AUTH_LOGIN_URL": "https://fakegitlab.com/oauth/authorize?client_id={client_id}&response_type=code&scope=email+openid&redirect_uri={app_url}/code&state={state}&code_challenge={code_challenge}&code_challenge_method=S256",
  "GW_AUTH_LOGOUT_URL": "http://localhost:5400",
  "GW_AUTH_TOKEN_URL": "https://fakegitlab.com/oauth/token",
  "GW_AUTH_CLIENT_ID": "65f460102bad674857d73c8b788076b6484d25aa6bf876f054d08c52b5040300",
  "GW_APP_URL": "http://localhost:5400",
  "GW_INITIAL_PRESETS_FILENAME": "initialPresets.json",
  "GW_FEATURE_APP_TITLE": "Mocked GeoWeb No Features",
  "GW_FEATURE_FORCE_AUTHENTICATION": false,
  "GW_FEATURE_MODULE_SPACE_WEATHER": false,
  "GW_FEATURE_MENU_FEEDBACK": false,
  "GW_FEATURE_MENU_INFO": false,
  "GW_FEATURE_MENU_VERSION": false
}
