[
  {
    "id": "923723984872338768743",
    "objectName": "Drawing object 101",
    "lastUpdatedTime": "2022-06-01T12:34:27Z",
    "scope": "user",
    "username": "Dwight Schrute",
    "geoJSON": {
      "type": "FeatureCollection",
      "features": [
        {
          "type": "Feature",
          "properties": {
            "fill": "#ff7800",
            "fill-opacity": 0.2,
            "stroke": "#ff7800",
            "stroke-width": 2,
            "stroke-opacity": 1,
            "selectionType": "poly"
          },
          "geometry": {
            "type": "Polygon",
            "coordinates": [
              [
                [3.357673379394467, 54.021903403974555],
                [6.600428193305415, 54.583753881732186],
                [6.642909697417786, 50.7929736738295],
                [3.357673379394467, 54.021903403974555]
              ]
            ]
          }
        }
      ]
    }
  },
  {
    "id": "934834893283",
    "objectName": "Drawing object 89",
    "lastUpdatedTime": "2022-05-31T12:34:27Z",
    "scope": "global",
    "username": "Dwight Schrute",
    "geoJSON": {
      "type": "FeatureCollection",
      "features": [
        {
          "type": "Feature",
          "properties": {
            "fill": "#ff7800",
            "fill-opacity": 0,
            "stroke": "#ff7800",
            "stroke-width": 2,
            "stroke-opacity": 1,
            "selectionType": "poly"
          },
          "geometry": {
            "type": "Polygon",
            "coordinates": [
              [
                [3.3151918752820957, 52.58351427721301],
                [4.433871483574519, 54.33682382687621],
                [6.6287491960469955, 54.20451802569423],
                [5.580872094608522, 54.063477378446876],
                [5.014452039776916, 53.08821448043569],
                [5.184378056226398, 50.69440676773111],
                [4.263945467125037, 52.367886565469774],
                [3.4851178917315777, 52.116433206467654],
                [3.3151918752820957, 52.58351427721301]
              ]
            ]
          }
        }
      ]
    }
  }
]
